{
"instructions_readme": "1) Open Chrome, 2) go to chrome://tracing, 3) click Load, 4) navigate to this file.",
"traceEvents":[
{ "cat":"", "pid":1, "tid":0, "ts":0, "ph":"M", "name":"process_name", "args": { "name":"tundra" } }
,{ "pid":1, "tid":0, "ts":693883257839, "dur":7882, "ph":"X", "name": "DriverCheckDagSignatures",  "args": { "durationMS":8, "detail":"" }}
,{ "pid":1, "tid":0, "ts":693883265722, "dur":1368, "ph":"X", "name": "DriverInitData",  "args": { "durationMS":1, "detail":"" }}
,{ "pid":1, "tid":0, "ts":693883267283, "dur":1, "ph":"X", "name": "Tundra",  "args": { "durationMS":0, "detail":"RemoveStaleOutputs" }}
,{ "pid":1, "tid":0, "ts":693883267312, "dur":4, "ph":"X", "name": "Tundra",  "args": { "durationMS":0, "detail":"PrepareNodes" }}
,{ "pid":1, "tid":0, "ts":693883267316, "dur":504, "ph":"X", "name": "Tundra",  "args": { "durationMS":1, "detail":"BuildQueueInit" }}
,{ "pid":1, "tid":0, "ts":694401274894, "dur":23082, "ph":"X", "name": "JoinBuildThread",  "args": { "durationMS":23, "detail":"" }}
,{ "pid":1, "tid":0, "ts":694401298023, "dur":9, "ph":"X", "name": "JoinBuildThread",  "args": { "durationMS":0, "detail":"" }}
,{ "pid":1, "tid":0, "ts":694401298052, "dur":93, "ph":"X", "name": "JoinBuildThread",  "args": { "durationMS":0, "detail":"" }}
,{ "pid":1, "tid":0, "ts":694401298159, "dur":5, "ph":"X", "name": "JoinBuildThread",  "args": { "durationMS":0, "detail":"" }}
,{ "pid":1, "tid":0, "ts":694401298176, "dur":0, "ph":"X", "name": "SharedResourceDestroy",  "args": { "durationMS":0, "detail":"" }}
,{ "pid":1, "tid":0, "ts":694401298184, "dur":95916, "ph":"X", "name": "Tundra",  "args": { "durationMS":96, "detail":"Write AllBuiltNodes" }}
,{ "pid":1, "tid":1, "ts":693883268378, "dur":502029, "ph":"X", "name": "CheckInputSignature",  "args": { "durationMS":502, "detail":"Il2Cpp C:/Projetos/TCC/Library/Il2cppBuildCache/Android/arm64-v8a/Native/arm64-v8a/libil2cpp.so" }}
,{ "pid":1, "tid":1, "ts":693883775714, "dur":517498922, "ph":"X", "name": "Il2Cpp",  "args": { "durationMS":517499, "detail":"C:/Projetos/TCC/Library/Il2cppBuildCache/Android/arm64-v8a/Native/arm64-v8a/libil2cpp.so" }}
,{ "pid":1, "tid":1, "ts":694401274639, "dur":2, "ph":"X", "name": "CheckInputSignature",  "args": { "durationMS":0, "detail":"all_tundra_nodes" }}
,{ "pid":1, "tid":1, "ts":694401274722, "dur":177, "ph":"X", "name": "WaitingForWork", "cname":"thread_state_sleeping",  "args": { "durationMS":0, "detail":"" }}
,{ "pid":1, "tid":1, "ts":694401274898, "dur":22095, "ph":"X", "name": "Exiting",  "args": { "durationMS":22, "detail":"BuildLoop" }}
,{ "pid":1, "tid":2, "ts":693883268367, "dur":518006542, "ph":"X", "name": "WaitingForWork", "cname":"thread_state_sleeping",  "args": { "durationMS":518007, "detail":"" }}
,{ "pid":1, "tid":2, "ts":694401274909, "dur":21212, "ph":"X", "name": "Exiting",  "args": { "durationMS":21, "detail":"BuildLoop" }}
,{ "pid":1, "tid":3, "ts":693883268402, "dur":518006504, "ph":"X", "name": "WaitingForWork", "cname":"thread_state_sleeping",  "args": { "durationMS":518007, "detail":"" }}
,{ "pid":1, "tid":3, "ts":694401274906, "dur":21781, "ph":"X", "name": "Exiting",  "args": { "durationMS":22, "detail":"BuildLoop" }}
,{ "pid":1, "tid":4, "ts":693883268471, "dur":518006432, "ph":"X", "name": "WaitingForWork", "cname":"thread_state_sleeping",  "args": { "durationMS":518006, "detail":"" }}
,{ "pid":1, "tid":4, "ts":694401274903, "dur":21810, "ph":"X", "name": "Exiting",  "args": { "durationMS":22, "detail":"BuildLoop" }}

]
}
